<?xml version="1.0" encoding="utf-8" ?>
<kml xmlns="http://www.opengis.net/kml/2.2">
<Document><Folder><name>plz_gebiete</name>
<Schema name="plz_gebiete" id="plz_gebiete">
	<SimpleField name="Name" type="string"></SimpleField>
	<SimpleField name="Description" type="string"></SimpleField>
	<SimpleField name="postal_code" type="string"></SimpleField>
</Schema>
  <Placemark>
	<name>52538</name>
	<description>52538 Gangelt, Selfkant</description>
	<Style><LineStyle><color>ff0000ff</color></LineStyle><PolyStyle><fill>0</fill></PolyStyle></Style>
	<ExtendedData><SchemaData schemaUrl="#plz_gebiete">
		<SimpleData name="Description">52538 Gangelt, Selfkant</SimpleData>
		<SimpleData name="postal_code">52538</SimpleData>
	</SchemaData></ExtendedData>
      <Polygon><outerBoundaryIs><LinearRing><coordinates>5.8663153,51.0511035 5.8669173,51.0512381 5.866737,51.0515704 5.8686904,51.0516857 5.8703878,51.0515903 5.8737406,51.0515825 5.8751881,51.0514726 5.8758452,51.0515558 5.8793493,51.051804 5.8811959,51.0520285 5.8820519,51.0520813 5.8828703,51.051988 5.8871988,51.0521792 5.8890316,51.0525051 5.8908693,51.0529676 5.8920004,51.0531278 5.8922955,51.0532346 5.8963724,51.0571413 5.8971888,51.0575888 5.9026956,51.0604315 5.9056447,51.0618459 5.9070563,51.0626768 5.9132078,51.066883 5.9187317,51.0639528 5.919693,51.0624463 5.9244415,51.052435 5.9263166,51.0482309 5.9271912,51.0475028 5.9280783,51.0469286 5.931507,51.0441045 5.9346073,51.0412295 5.9363748,51.0382868 5.936411,51.0382974 5.9379021,51.0362987 5.9381295,51.0351172 5.9408378,51.0356516 5.9408537,51.0355513 5.9415786,51.0356087 5.9429997,51.0360944 5.9430992,51.0365864 5.9438611,51.0366703 5.944556,51.0366855 5.9465195,51.0370296 5.9464447,51.0366218 5.9498013,51.0369672 5.9512761,51.0368471 5.9522062,51.036657 5.9540064,51.0365293 5.9544943,51.0362759 5.9550608,51.0359005 5.9557012,51.0350321 5.9562121,51.0349216 5.9563136,51.035082 5.9576222,51.034714 5.9577783,51.0347261 5.9577346,51.0349881 5.9578704,51.0353216 5.9581129,51.036118 5.958411,51.0366373 5.9589648,51.0372698 5.9594674,51.0382386 5.9593061,51.0385095 5.9589464,51.0389298 5.9582377,51.0399558 5.9578301,51.0409811 5.9590468,51.0414886 5.9604917,51.0420062 5.9616832,51.0419694 5.9624701,51.042453 5.9626243,51.0428317 5.9638396,51.0436853 5.9644952,51.0438002 5.9649699,51.0435857 5.9657866,51.0440584 5.9665321,51.044059 5.9669003,51.0441371 5.9678378,51.0447592 5.9680147,51.0458827 5.9682805,51.0463669 5.9685527,51.0462809 5.9691978,51.0467722 5.9687939,51.0471864 5.9684426,51.0479575 5.9710732,51.0468717 5.9711429,51.0468854 5.9712396,51.0468455 5.9712661,51.046792 5.9742374,51.0455684 5.9763147,51.0448741 5.9767974,51.044741 5.9783002,51.0441374 5.9808821,51.0426042 5.9818737,51.0418737 5.9834096,51.0404059 5.9839686,51.0405631 5.9858598,51.0409338 5.9889858,51.0412695 5.9921774,51.0410933 5.992393,51.0410709 5.9923885,51.0409458 5.9932803,51.0409281 5.9963277,51.0410694 5.9988616,51.0416848 6.0000667,51.0420154 6.0012777,51.042406 6.0013522,51.0423897 6.002257,51.0411481 6.0022304,51.0410989 6.0047417,51.0412544 6.0048228,51.041226 6.0068835,51.0384053 6.0068523,51.0383684 6.0107384,51.0386514 6.0108944,51.0386902 6.0109266,51.03865 6.0163728,51.0406876 6.0163356,51.0406372 6.017676,51.037424 6.0177432,51.0374034 6.0233133,51.0389696 6.0233504,51.0390193 6.0251606,51.0347285 6.0251188,51.034698 6.0251381,51.0346513 6.025297,51.0346816 6.0252424,51.0345693 6.0252916,51.0345784 6.0278098,51.0327863 6.027884,51.0326901 6.027946,51.0327087 6.0312548,51.0316198 6.0313479,51.03155 6.0314103,51.0315687 6.0356007,51.0301913 6.0357737,51.0300953 6.0358352,51.0301478 6.0385228,51.0310681 6.0402142,51.0317356 6.0402761,51.0317197 6.0403765,51.0318043 6.0404208,51.0316854 6.0415898,51.0311912 6.0419054,51.0314873 6.0447027,51.0302455 6.0436572,51.0292325 6.0436869,51.0291833 6.0437586,51.0291996 6.0471029,51.0281132 6.0471276,51.0280647 6.0471908,51.0280441 6.0472677,51.0280596 6.0544427,51.0257256 6.0544647,51.0256781 6.054528,51.0256572 6.0546094,51.0256713 6.0577181,51.0246586 6.0556992,51.0226259 6.0552878,51.0221865 6.0553341,51.0221654 6.0530766,51.0198686 6.0530987,51.0198237 6.0612187,51.0176001 6.0612988,51.0176173 6.0613524,51.0175855 6.0613601,51.0175261 6.0615575,51.0174949 6.0633675,51.0159256 6.0672219,51.012852 6.0672977,51.0128492 6.0673653,51.012723 6.0673303,51.0127002 6.0693528,51.0110869 6.0693394,51.0110398 6.0694634,51.0109987 6.0716205,51.0092777 6.071607,51.0092309 6.0717313,51.0091894 6.0753029,51.0063423 6.0753159,51.006282 6.073539,51.0035778 6.0735851,51.0035422 6.0736428,51.0035481 6.0788623,50.9995237 6.0788418,50.9994893 6.0789627,50.9994275 6.0811375,50.9971367 6.0811177,50.9970903 6.0797943,50.9966334 6.0786601,50.9961913 6.0785787,50.9962015 6.0785321,50.9961806 6.0785199,50.9961298 6.0766837,50.9952092 6.0765537,50.9951984 6.0765398,50.9951515 6.0747979,50.9945217 6.0747203,50.994535 6.0742223,50.9950801 6.0711734,50.9938875 6.0711195,50.9939095 6.0711168,50.9938535 6.0709988,50.9937942 6.071012,50.9936727 6.0709685,50.9937129 6.0708927,50.9937045 6.070088,50.9932813 6.070038,50.9933119 6.0677323,50.9921405 6.0603714,50.98708 6.059881,50.9864805 6.0596813,50.986422 6.0596031,50.9863227 6.0589403,50.9852604 6.059155,50.9850303 6.0590994,50.9848652 6.0589716,50.9847363 6.0577935,50.9840131 6.0574061,50.9835138 6.0571941,50.9833455 6.0576582,50.9833188 6.0577072,50.9832086 6.0576358,50.982905 6.0575557,50.9829024 6.0571113,50.9815204 6.0549536,50.9813224 6.0539053,50.9786395 6.053821,50.9786174 6.0530596,50.9778757 6.0527108,50.9774074 6.0522101,50.9763477 6.0516929,50.9755896 6.0514178,50.9750829 6.0489017,50.9724624 6.0454174,50.9686395 6.0383839,50.9617671 6.0368331,50.9602321 6.035479,50.9588214 6.034925,50.9567306 6.0358606,50.954725 6.0150734,50.9478831 6.0168529,50.9526426 6.0164866,50.9526801 6.0131976,50.9538838 6.011801,50.954301 6.0115342,50.9544656 6.010422,50.9548876 6.0095117,50.9552188 6.0093982,50.9552382 6.009384,50.9552143 6.0073357,50.9559374 6.0051985,50.9567766 6.0066404,50.9580562 6.007737,50.95882 6.0090808,50.9594847 6.0098748,50.9597858 6.0106874,50.9600317 6.0130005,50.9603978 6.0132291,50.9606345 6.0140654,50.9612743 6.0152071,50.9623644 6.0159447,50.9634664 6.0173078,50.9652736 6.0187894,50.9679476 6.0194551,50.9689486 6.0211632,50.9710029 6.0219848,50.9725874 6.0226453,50.9740205 6.0268024,50.9813094 6.0268945,50.9816414 6.0267907,50.9816748 6.0267358,50.9821809 6.0265078,50.9830724 6.0265486,50.9831273 6.0265118,50.983272 6.0256919,50.9832037 6.0229307,50.9832697 6.0211996,50.9835936 6.0187006,50.9838185 6.0172262,50.9836784 6.0173635,50.9834017 6.0038885,50.9828362 5.9842222,50.9821146 5.9822432,50.9830683 5.9818174,50.9831922 5.9813572,50.9832173 5.9798552,50.9829867 5.9795753,50.9829163 5.9764994,50.9816361 5.9756818,50.9812562 5.9739371,50.9805535 5.9735906,50.9804577 5.9685089,50.979427 5.9680463,50.9793798 5.9675758,50.9793959 5.9669113,50.979535 5.9663259,50.9797694 5.9658449,50.980083 5.965598,50.9803304 5.9652406,50.9807728 5.9650109,50.9809395 5.961394,50.9827941 5.9607863,50.983056 5.9608796,50.9831557 5.9573923,50.9850053 5.9551851,50.988417 5.9501345,50.9872072 5.9338864,50.9853532 5.9276515,50.9822854 5.9229931,50.9795457 5.9185541,50.9777466 5.9171731,50.9780835 5.9155904,50.9778246 5.9147167,50.9775448 5.9117292,50.9764097 5.909306,50.9757528 5.9073862,50.9751664 5.9056009,50.9747203 5.9046949,50.9745525 5.9024285,50.9745816 5.9004618,50.9747375 5.8970856,50.974865 5.8967968,50.9764861 5.8961675,50.9771018 5.8959821,50.977152 5.8956635,50.9772986 5.8942028,50.978938 5.893785,50.9795591 5.89261,50.9803128 5.8928758,50.9804328 5.8928716,50.9805981 5.8938024,50.981097 5.8957234,50.9813742 5.8965591,50.9820008 5.8976824,50.9829821 5.8982083,50.9833267 5.8995133,50.9843409 5.8998096,50.9845429 5.9003207,50.9847579 5.9037255,50.9871977 5.9043511,50.9961382 5.9055175,51.002172 5.8954767,51.0045305 5.8957396,51.0110191 5.8926984,51.0123043 5.8883441,51.0134723 5.8854458,51.013816 5.8842617,51.0133816 5.8798424,51.0170328 5.8789136,51.017837 5.8788079,51.0179629 5.8786611,51.0182087 5.8785633,51.0184741 5.8785621,51.0187002 5.8786383,51.0191371 5.8789175,51.0196856 5.8789821,51.0199332 5.8790019,51.0202225 5.8789281,51.0205594 5.8787573,51.0208996 5.8786153,51.0211048 5.876694,51.0237596 5.8766433,51.0240432 5.8766784,51.0244651 5.876609,51.0247339 5.8757735,51.0261824 5.8753595,51.0268206 5.8745997,51.0292053 5.874658,51.0293358 5.8754991,51.0301275 5.8767633,51.0313926 5.8769095,51.0316327 5.8781142,51.0370356 5.8781153,51.0373552 5.8780282,51.0375835 5.8778875,51.0377716 5.877685,51.0379568 5.8774289,51.0381103 5.8767529,51.0383857 5.8749282,51.0389466 5.874608,51.0391381 5.8721697,51.0416672 5.8672852,51.0462799 5.8670874,51.0466756 5.8663153,51.0511035</coordinates></LinearRing></outerBoundaryIs></Polygon>
  </Placemark>
  <Placemark>
	<name>47559</name>
	<description>47559 Kranenburg</description>
	<Style><LineStyle><color>ff0000ff</color></LineStyle><PolyStyle><fill>0</fill></PolyStyle></Style>
	<ExtendedData><SchemaData schemaUrl="#plz_gebiete">
		<SimpleData name="Description">47559 Kranenburg</SimpleData>
		<SimpleData name="postal_code">47559</SimpleData>
	</SchemaData></ExtendedData>
      <Polygon><outerBoundaryIs><LinearRing><coordinates>5.9450447,51.823544 5.9458032,51.8240918 5.945479,51.8242662 5.9465586,51.8249794 5.947823,51.8259667 5.9479458,51.8259726 5.9629783,51.836914 5.9656025,51.8355675 5.9670761,51.8348446 5.9680965,51.8343901 5.971099,51.8333473 5.97151,51.8333506 5.9722355,51.8334462 5.9723722,51.8334052 5.9733557,51.8333723 5.9740743,51.8332878 5.9751863,51.8330969 5.9763764,51.8329681 5.9779825,51.8324826 5.9784127,51.8323793 5.9823688,51.8317642 5.9837519,51.8314507 5.9857414,51.8308273 5.9867375,51.8306699 5.987338,51.8306178 5.9881079,51.8306256 5.9902286,51.8307538 5.9928202,51.8309611 5.9936145,51.8309883 5.9944263,51.8309151 5.9960118,51.8311487 5.9966042,51.8312738 5.9969678,51.8313689 5.9980792,51.8317708 5.9988899,51.8319747 6.0019255,51.8324134 6.0022569,51.8324905 6.0027563,51.8327294 6.0043886,51.8333243 6.0043879,51.8333887 6.0043096,51.8335051 6.0056828,51.8339962 6.0068511,51.8342724 6.0087057,51.8347935 6.0101423,51.8351271 6.0113481,51.83578 6.0130717,51.8365614 6.0148003,51.8375471 6.0148345,51.8375295 6.0155721,51.8378689 6.0158291,51.8380273 6.0160434,51.8382424 6.0162608,51.8386646 6.0163624,51.8389345 6.0166731,51.8401473 6.0169644,51.8407604 6.0172303,51.8411948 6.0176106,51.8414632 6.0178391,51.8415597 6.0183082,51.8416686 6.0198575,51.8416238 6.0202807,51.841664 6.0227127,51.8428095 6.0258355,51.8439914 6.0291532,51.8451232 6.0292144,51.8450352 6.0306661,51.8438664 6.0317125,51.8430455 6.0326823,51.8423515 6.0331829,51.8431215 6.0335043,51.8434073 6.0340276,51.8431159 6.0345382,51.8429316 6.0356706,51.8426381 6.0362392,51.8434237 6.0368354,51.8440145 6.039204,51.8430271 6.0371916,51.8380629 6.0438707,51.8375109 6.0444594,51.8363443 6.0445,51.8320038 6.0429165,51.8295197 6.0480121,51.8273868 6.0483572,51.8261697 6.0559296,51.8277255 6.0566807,51.8244256 6.0635222,51.8249401 6.0675216,51.8256553 6.0757433,51.8260693 6.0759473,51.8238818 6.0765142,51.8238656 6.0762511,51.8206235 6.0804129,51.8187286 6.0836611,51.8175365 6.0884188,51.8161981 6.0869499,51.8144161 6.0853639,51.8121977 6.0823791,51.8081815 6.0814131,51.806244 6.0795282,51.805297 6.078994,51.8046298 6.0820004,51.802828 6.08179,51.8021938 6.0814837,51.801815 6.0807769,51.8013341 6.0804597,51.8005685 6.0820256,51.8006493 6.0820728,51.8001831 6.0840997,51.7990041 6.0835087,51.7986329 6.0829079,51.7981685 6.0815327,51.7968471 6.0817126,51.7965086 6.0813118,51.7963321 6.0835008,51.7953173 6.0900107,51.7948555 6.0893765,51.7945336 6.0893547,51.7942438 6.0896546,51.793019 6.0897347,51.7925435 6.0880705,51.7924498 6.0878255,51.7926013 6.0874751,51.7924376 6.0857807,51.7920282 6.0839423,51.7912148 6.0846624,51.7910269 6.0855038,51.790882 6.0857913,51.7904736 6.0861854,51.7901508 6.0866753,51.7894261 6.0860363,51.7891824 6.0854399,51.7888662 6.0847545,51.7882485 6.0845714,51.7881385 6.0843233,51.7880534 6.0845715,51.7869904 6.0803277,51.7871994 6.0805926,51.7870212 6.0793952,51.7869201 6.0747873,51.786157 6.0763445,51.7857632 6.0760144,51.7855392 6.0764297,51.7854865 6.0769627,51.7853115 6.0770229,51.7851996 6.0767066,51.7847486 6.0766239,51.7843045 6.0768834,51.7842653 6.0760648,51.7834118 6.0756814,51.782687 6.075263,51.7821592 6.0740412,51.7813593 6.073711,51.7812342 6.0734375,51.7812058 6.0693284,51.7771339 6.0696735,51.7756893 6.0638471,51.7752623 6.0638065,51.7746593 6.0635831,51.7740689 6.0631162,51.773378 6.0627248,51.7720229 6.0622636,51.7719836 6.0612079,51.772059 6.0605583,51.771858 6.0592793,51.7712425 6.0586499,51.771142 6.0576958,51.771142 6.0572086,51.7709912 6.0494129,51.7666946 6.0507325,51.7638551 6.0535259,51.7651304 6.0586474,51.7638393 6.0544795,51.757469 6.050969,51.7519549 6.0462674,51.7447022 6.0398527,51.7349214 6.0325426,51.7235679 6.0320399,51.7239945 6.0302248,51.7250101 6.0295222,51.7254848 6.0289655,51.7257534 6.0259741,51.7268051 6.0224971,51.727926 6.0210361,51.7283487 6.0189974,51.7287814 6.0174853,51.7290408 6.0162489,51.7295589 6.0152154,51.7300326 6.0134333,51.7307575 6.0110516,51.7314865 6.0095901,51.731845 6.0035757,51.7337939 6.0022965,51.7345887 6.0015348,51.7349197 6.0005188,51.7352051 5.9998851,51.735428 5.9995798,51.7355723 5.9992232,51.7358093 5.9987098,51.7360862 5.9981441,51.736301 5.9962492,51.7372107 5.9958434,51.7374328 5.9953996,51.7377261 5.9947352,51.7380727 5.9941968,51.7383094 5.9926152,51.7385962 5.9916746,51.7387166 5.9873175,51.7389251 5.9865236,51.7390382 5.9854953,51.7392677 5.9849901,51.7392884 5.9844274,51.7392088 5.9837359,51.7390642 5.9814695,51.7388205 5.9791921,51.7387519 5.9784045,51.7387755 5.9745012,51.7392323 5.973362,51.7393056 5.9726495,51.7392803 5.9708608,51.7391079 5.9695461,51.7388836 5.9692942,51.7387924 5.9689676,51.7386084 5.9684128,51.7385037 5.9680298,51.7385153 5.9669952,51.7386524 5.9657874,51.7387681 5.9636774,51.7387299 5.962443,51.7387338 5.9611103,51.7387816 5.9608506,51.7387595 5.9591691,51.7382884 5.9583234,51.7384004 5.9568571,51.7386545 5.9561407,51.7384814 5.9551552,51.7381176 5.955003,51.7383891 5.9549519,51.7388953 5.9546712,51.7394255 5.9544722,51.7396657 5.9538315,51.7401371 5.9536182,51.7404965 5.9531272,51.7409364 5.9530286,51.741087 5.9530243,51.7411964 5.9531305,51.7414488 5.953129,51.7415541 5.9528197,51.7418399 5.9525281,51.7420465 5.9523714,51.7422808 5.9522944,51.7426841 5.9525676,51.7448731 5.952501,51.7452079 5.9525096,51.7454826 5.9525921,51.7457839 5.9527331,51.7460995 5.9527039,51.7464644 5.9528106,51.7469631 5.9531604,51.7474943 5.9533198,51.7479327 5.9532349,51.7480921 5.9529767,51.7483429 5.9519882,51.7489494 5.9568248,51.7519385 5.9583361,51.7514607 5.974095,51.7592562 5.974938,51.7590368 5.9754666,51.7592886 5.9765701,51.7596955 5.9768582,51.7597406 5.9776205,51.7597565 5.97829,51.75971 5.9787699,51.7598605 5.9792097,51.7600527 5.9905046,51.7662793 5.9906271,51.7664338 5.9909877,51.7674909 5.9912033,51.7682776 5.9919404,51.769781 5.992067,51.7702459 5.99075,51.7696822 5.9868016,51.7722269 5.9843955,51.7730524 5.9823598,51.773697 5.9840224,51.7753512 5.9836734,51.7755815 5.9841191,51.7766403 5.9845441,51.7777936 5.9843367,51.7777651 5.9841257,51.778064 5.9834319,51.778725 5.9843488,51.7793103 5.9861425,51.7803852 5.9879894,51.7815825 5.98915,51.7823917 5.990427,51.7831975 5.9902267,51.7834013 5.9897477,51.7837237 5.9891311,51.78347 5.9878878,51.7828887 5.9847933,51.7844282 5.9846787,51.7850571 5.9817656,51.7841367 5.9808594,51.7855298 5.9807119,51.7855992 5.9805476,51.7855889 5.9803213,51.7857401 5.9797092,51.7859503 5.9795388,51.7859771 5.9786571,51.7858438 5.9745484,51.785062 5.9745213,51.7860527 5.9739778,51.7884702 5.974658,51.7886384 5.9750704,51.7887882 5.9726325,51.7895653 5.9749493,51.792257 5.9767821,51.7942762 5.9745999,51.7952089 5.9747855,51.7953312 5.9743919,51.7956231 5.9790653,51.7976507 5.978215,51.7980407 5.9781264,51.7981632 5.9771942,51.7986314 5.9769974,51.7986864 5.9766703,51.7987129 5.9756439,51.7990394 5.9750777,51.7993885 5.9751171,51.7994178 5.9741059,51.8000869 5.9726316,51.800832 5.9718952,51.8012557 5.9712988,51.8018313 5.9707363,51.8020909 5.9692605,51.8029197 5.968771,51.8032467 5.9679713,51.8036981 5.9674683,51.8041433 5.9673861,51.8044547 5.9673353,51.8045303 5.9669192,51.8043838 5.9660718,51.8050731 5.9657974,51.8053963 5.9657567,51.8056034 5.9653734,51.8058177 5.9630792,51.8070592 5.9598328,51.8083511 5.9595118,51.8085269 5.9589349,51.8087666 5.9589887,51.8087826 5.9578767,51.8090718 5.9577799,51.8090589 5.9575177,51.8091759 5.9572658,51.8093402 5.9571063,51.8094935 5.9567784,51.8098276 5.9567588,51.8099355 5.9565373,51.810044 5.9561177,51.8101472 5.9536587,51.8103282 5.9509383,51.8105808 5.9494341,51.810887 5.9486408,51.8111054 5.9479779,51.8113714 5.9483257,51.8113453 5.9484826,51.8113892 5.9486822,51.8116685 5.9491871,51.8120918 5.9494219,51.8124431 5.948764,51.8127924 5.9483152,51.8125133 5.9465699,51.8134799 5.9465915,51.8138729 5.9470276,51.8143861 5.9465088,51.8146141 5.9459267,51.8151111 5.9480612,51.816438 5.9481771,51.8164229 5.9496279,51.815445 5.9506722,51.8162375 5.9528469,51.8147896 5.9547888,51.8159072 5.9556762,51.8154694 5.9581508,51.8169313 5.9450447,51.823544</coordinates></LinearRing></outerBoundaryIs></Polygon>
  </Placemark>
</Folder></Document></kml>
